…
#> Parsed with column specification:
#> cols(
#>   Date = col_character(),
#>   `East of England` = col_double(),
#>   `West Midlands (England)` = col_double(),
#>   `South West (England)` = col_double(),
#>   `North West (England)` = col_double(),
#>   `Yorkshire and The Humber` = col_double(),
#>   `South East (England)` = col_double(),
#>   London = col_double(),
#>   `North East (England)` = col_double(),
#>   Wales = col_double(),
#>   `East Midlands (England)` = col_double()
#> )
#> # A tibble: 308 x 11
#>    Date  `East of Englan~ `West Midlands ~ `South West (En~ `North West (En~
#>    <chr>            <dbl>            <dbl>            <dbl>            <dbl>
#>  1 Feb ~             1.02            1.01              1.01            1.01 
#>  2 Mar ~             1.02            1.01              1.01            1.02 
#>  3 Apr ~             1.01            0.994             1.01            1.01 
#>  4 May ~             1.02            1.00              1.01            1.02 
#>  5 Jun ~             1.02            1.01              1.02            1.01 
#>  6 Jul ~             1.02            1.00              1.00            0.999
#>  7 Aug ~             1.01            0.994             1.01            1.00 
#>  8 Sep ~             1.01            0.996             1.01            1.00 
#>  9 Oct ~             1.01            1.01              1.00            0.994
#> 10 Nov ~             1.02            1.01              1.00            1.00 
#> # ... with 298 more rows, and 6 more variables: `Yorkshire and The
#> #   Humber` <dbl>, `South East (England)` <dbl>, London <dbl>, `North East
#> #   (England)` <dbl>, Wales <dbl>, `East Midlands (England)` <dbl>
```
…
