api • hopi
…
overview of all the contents

Fetch the data

R

library(readr)

ukhp_get <- function(release = "2020-Q3", frequency = "monthly", classification = "nuts1") {
  endpoint <- "https://raw.githubusercontent.com/lancs-macro/hopi/master/data"
  query <- paste(endpoint, release, frequency, paste0(classification, ".csv"), sep = "/")
  readr::read_csv(query)
} 
ukhp_get()
#> # A tibble: 308 x 11
#>    Date  `East of Englan… `West Midlands … `South West (En… `North West (En…
#>    <chr>            <dbl>            <dbl>            <dbl>            <dbl>
#>  1 Feb …             1.02            1.01              1.01            1.01 
#>  2 Mar …             1.02            1.01              1.01            1.02 
#>  3 Apr …             1.01            0.994             1.01            1.01 
#>  4 May …             1.02            1.00              1.01            1.02 
#>  5 Jun …             1.02            1.01              1.02            1.01 
#>  6 Jul …             1.02            1.00              1.00            0.999
#>  7 Aug …             1.01            0.994             1.01            1.00 
#>  8 Sep …             1.01            0.996             1.01            1.00 
#>  9 Oct …             1.01            1.01              1.00            0.994
#> 10 Nov …             1.02            1.01              1.00            1.00 
#> # … with 298 more rows, and 6 more variables: `Yorkshire and The Humber` <dbl>,
#> #   `South East (England)` <dbl>, London <dbl>, `North East (England)` <dbl>,
#> #   Wales <dbl>, `East Midlands (England)` <dbl>
ukhp_get(frequency = "quarterly")
#> # A tibble: 102 x 11
#>    Date  `East of Englan… `West Midlands … `South West (En… `North West (En…
#>    <chr>            <dbl>            <dbl>            <dbl>            <dbl>
#>  1 1995…             1.00            1.00              1.01            1.00 
#>  2 1995…             1.00            0.992             1.00            0.992
#>  3 1995…             1.01            1.00              1.00            0.991
#>  4 1996…             1.00            0.996             1.01            0.992
#>  5 1996…             1.01            1.00              1.02            0.992
#>  6 1996…             1.03            1.01              1.03            0.991
#>  7 1996…             1.05            1.03              1.05            1.00 
#>  8 1997…             1.07            1.04              1.07            1.01 
#>  9 1997…             1.10            1.06              1.10            1.03 
#> 10 1997…             1.13            1.08              1.13            1.03 
#> # … with 92 more rows, and 6 more variables: `Yorkshire and The Humber` <dbl>,
#> #   `South East (England)` <dbl>, London <dbl>, `North East (England)` <dbl>,
#> #   Wales <dbl>, `East Midlands (England)` <dbl>
…
